{
  "varpID": -1,
  "varbitID": 1850,
  "id": 106,
  "rowId": 117,
  "sortName": "Recipe for Disaster",
  "displayName": "Recipe for Disaster",
  "type": "QUEST",
  "members": true,
  "difficulty": "SPECIAL",
  "length": "VERY_LONG",
  "releaseYear": 2006,
  "startPosition": {
    "x": 3207,
    "y": 3214,
    "plane": 0
  },
  "rewardPoints": 0,
  "progressionStatus": [],
  "completionStatus": 5,
  "skillRequirements": [
    {
      "skill": "COOKING",
      "requirement": 10
    }
  ],
  "skillRecommendations": [],
  "questRequirements": [
    {
      "quest": {
        "id": 1,
        "rowId": 17,
        "sortName": "Cook's Assistant",
        "displayName": "Cook's Assistant",
        "type": "QUEST",
        "members": false,
        "difficulty": "NOVICE",
        "length": "VERY_SHORT",
        "releaseYear": 2001,
        "startPosition": {
          "x": 3207,
          "y": 3214,
          "plane": 0
        },
        "rewardPoints": 1,
        "progressionStatus": [],
        "completionStatus": 2,
        "skillRequirements": [],
        "skillRecommendations": [],
        "questRequirements": [],
        "questPointRequirement": 0,
        "combatLevelRequirement": 0,
        "combatLevelRecommended": 0
      }
    }
  ],
  "questPointRequirement": 0,
  "combatLevelRequirement": 0,
  "combatLevelRecommended": 0
}