{
  "varpID": -1,
  "varbitID": 2639,
  "id": 119,
  "rowId": 39,
  "sortName": "Elemental Workshop II",
  "displayName": "Elemental Workshop II",
  "type": "QUEST",
  "members": true,
  "difficulty": "INTERMEDIATE",
  "length": "SHORT",
  "releaseYear": 2006,
  "startPosition": {
    "x": 3362,
    "y": 3339,
    "plane": 0
  },
  "rewardPoints": 1,
  "progressionStatus": [],
  "completionStatus": 11,
  "skillRequirements": [
    {
      "skill": "SMITHING",
      "requirement": 30
    },
    {
      "skill": "MAGIC",
      "requirement": 20
    }
  ],
  "skillRecommendations": [],
  "questRequirements": [
    {
      "quest": {
        "id": 55,
        "rowId": 38,
        "sortName": "Elemental Workshop I",
        "displayName": "Elemental Workshop I",
        "type": "QUEST",
        "members": true,
        "difficulty": "NOVICE",
        "length": "VERY_SHORT",
        "releaseYear": 2004,
        "startPosition": {
          "x": 2714,
          "y": 3481,
          "plane": 0
        },
        "rewardPoints": 1,
        "progressionStatus": [],
        "completionStatus": 2,
        "skillRequirements": [
          {
            "skill": "MINING",
            "requirement": 20
          },
          {
            "skill": "SMITHING",
            "requirement": 20
          },
          {
            "skill": "CRAFTING",
            "requirement": 20
          }
        ],
        "skillRecommendations": [],
        "questRequirements": [],
        "questPointRequirement": 0,
        "combatLevelRequirement": 0,
        "combatLevelRecommended": 15
      }
    }
  ],
  "questPointRequirement": 0,
  "combatLevelRequirement": 0,
  "combatLevelRecommended": 15
}