{
  "varpID": -1,
  "varbitID": 12063,
  "id": 162,
  "rowId": 6,
  "sortName": "Below Ice Mountain",
  "displayName": "Below Ice Mountain",
  "type": "QUEST",
  "members": false,
  "difficulty": "NOVICE",
  "length": "SHORT",
  "releaseYear": 2021,
  "startPosition": {
    "x": 3003,
    "y": 3433,
    "plane": 0
  },
  "rewardPoints": 1,
  "progressionStatus": [],
  "completionStatus": 120,
  "skillRequirements": [
    {
      "skill": "MINING",
      "requirement": 10
    }
  ],
  "skillRecommendations": [],
  "questRequirements": [],
  "questPointRequirement": 16,
  "combatLevelRequirement": 0,
  "combatLevelRecommended": 15
}