{
  "varpID": -1,
  "varbitID": 13599,
  "id": 166,
  "rowId": 165,
  "sortName": "Land of the Goblins",
  "displayName": "Land of the Goblins",
  "type": "QUEST",
  "members": true,
  "difficulty": "EXPERIENCED",
  "length": "MEDIUM",
  "releaseYear": 2022,
  "startPosition": {
    "x": 3319,
    "y": 9616,
    "plane": 0
  },
  "rewardPoints": 2,
  "progressionStatus": [],
  "completionStatus": 56,
  "skillRequirements": [
    {
      "skill": "HERBLORE",
      "requirement": 48
    },
    {
      "skill": "THIEVING",
      "requirement": 45
    },
    {
      "skill": "FISHING",
      "requirement": 40
    },
    {
      "skill": "AGILITY",
      "requirement": 38
    }
  ],
  "skillRecommendations": [],
  "questRequirements": [
    {
      "quest": {
        "id": 133,
        "rowId": 1,
        "sortName": "Another Slice of H.A.M.",
        "displayName": "Another Slice of H.A.M.",
        "type": "QUEST",
        "members": true,
        "difficulty": "INTERMEDIATE",
        "length": "SHORT",
        "releaseYear": 2007,
        "startPosition": {
          "x": 2731,
          "y": 5364,
          "plane": 1
        },
        "rewardPoints": 1,
        "progressionStatus": [],
        "completionStatus": 11,
        "skillRequirements": [
          {
            "skill": "PRAYER",
            "requirement": 25
          },
          {
            "skill": "ATTACK",
            "requirement": 15
          }
        ],
        "skillRecommendations": [],
        "questRequirements": [
          {
            "quest": {
              "id": 113,
              "rowId": 24,
              "sortName": "Death to the Dorgeshuun",
              "displayName": "Death to the Dorgeshuun",
              "type": "QUEST",
              "members": true,
              "difficulty": "INTERMEDIATE",
              "length": "MEDIUM",
              "releaseYear": 2006,
              "startPosition": {
                "x": 3317,
                "y": 9613,
                "plane": 0
              },
              "rewardPoints": 1,
              "progressionStatus": [],
              "completionStatus": 13,
              "skillRequirements": [
                {
                  "skill": "THIEVING",
                  "requirement": 23
                },
                {
                  "skill": "AGILITY",
                  "requirement": 23
                }
              ],
              "skillRecommendations": [],
              "questRequirements": [
                {
                  "quest": {
                    "id": 83,
                    "rowId": 87,
                    "sortName": "Lost Tribe, The",
                    "displayName": "The Lost Tribe",
                    "type": "QUEST",
                    "members": true,
                    "difficulty": "INTERMEDIATE",
                    "length": "SHORT",
                    "releaseYear": 2005,
                    "startPosition": {
                      "x": 3209,
                      "y": 3221,
                      "plane": 1
                    },
                    "rewardPoints": 1,
                    "progressionStatus": [],
                    "completionStatus": 11,
                    "skillRequirements": [
                      {
                        "skill": "MINING",
                        "requirement": 17
                      },
                      {
                        "skill": "THIEVING",
                        "requirement": 13
                      },
                      {
                        "skill": "AGILITY",
                        "requirement": 13
                      }
                    ],
                    "skillRecommendations": [],
                    "questRequirements": [
                      {
                        "quest": {
                          "id": 15,
                          "rowId": 64,
                          "sortName": "Goblin Diplomacy",
                          "displayName": "Goblin Diplomacy",
                          "type": "QUEST",
                          "members": false,
                          "difficulty": "NOVICE",
                          "length": "VERY_SHORT",
                          "releaseYear": 2001,
                          "startPosition": {
                            "x": 2958,
                            "y": 3511,
                            "plane": 0
                          },
                          "rewardPoints": 5,
                          "progressionStatus": [],
                          "completionStatus": 6,
                          "skillRequirements": [],
                          "skillRecommendations": [],
                          "questRequirements": [],
                          "questPointRequirement": 0,
                          "combatLevelRequirement": 0,
                          "combatLevelRecommended": 0
                        }
                      },
                      {
                        "quest": {
                          "id": 53,
                          "rowId": 125,
                          "sortName": "Rune Mysteries",
                          "displayName": "Rune Mysteries",
                          "type": "QUEST",
                          "members": false,
                          "difficulty": "NOVICE",
                          "length": "SHORT",
                          "releaseYear": 2003,
                          "startPosition": {
                            "x": 3209,
                            "y": 3221,
                            "plane": 0
                          },
                          "rewardPoints": 1,
                          "progressionStatus": [],
                          "completionStatus": 6,
                          "skillRequirements": [],
                          "skillRecommendations": [],
                          "questRequirements": [],
                          "questPointRequirement": 0,
                          "combatLevelRequirement": 0,
                          "combatLevelRecommended": 0
                        }
                      }
                    ],
                    "questPointRequirement": 0,
                    "combatLevelRequirement": 0,
                    "combatLevelRecommended": 0
                  }
                }
              ],
              "questPointRequirement": 0,
              "combatLevelRequirement": 0,
              "combatLevelRecommended": 30
            }
          },
          {
            "quest": {
              "id": 84,
              "rowId": 63,
              "sortName": "Giant Dwarf, The",
              "displayName": "The Giant Dwarf",
              "type": "QUEST",
              "members": true,
              "difficulty": "INTERMEDIATE",
              "length": "MEDIUM",
              "releaseYear": 2005,
              "startPosition": {
                "x": 2842,
                "y": 10128,
                "plane": 0
              },
              "rewardPoints": 2,
              "progressionStatus": [],
              "completionStatus": 50,
              "skillRequirements": [
                {
                  "skill": "MAGIC",
                  "requirement": 33
                },
                {
                  "skill": "FIREMAKING",
                  "requirement": 16
                },
                {
                  "skill": "THIEVING",
                  "requirement": 14
                },
                {
                  "skill": "CRAFTING",
                  "requirement": 12
                }
              ],
              "skillRecommendations": [],
              "questRequirements": [],
              "questPointRequirement": 0,
              "combatLevelRequirement": 0,
              "combatLevelRecommended": 0
            }
          },
          {
            "quest": {
              "id": 49,
              "rowId": 29,
              "sortName": "Dig Site, The",
              "displayName": "The Dig Site",
              "type": "QUEST",
              "members": true,
              "difficulty": "INTERMEDIATE",
              "length": "MEDIUM",
              "releaseYear": 2003,
              "startPosition": {
                "x": 3362,
                "y": 3339,
                "plane": 0
              },
              "rewardPoints": 2,
              "progressionStatus": [],
              "completionStatus": 9,
              "skillRequirements": [
                {
                  "skill": "THIEVING",
                  "requirement": 25
                },
                {
                  "skill": "HERBLORE",
                  "requirement": 10
                },
                {
                  "skill": "AGILITY",
                  "requirement": 10
                }
              ],
              "skillRecommendations": [],
              "questRequirements": [],
              "questPointRequirement": 0,
              "combatLevelRequirement": 0,
              "combatLevelRecommended": 0
            }
          }
        ],
        "questPointRequirement": 0,
        "combatLevelRequirement": 0,
        "combatLevelRecommended": 35
      }
    },
    {
      "quest": {
        "id": 27,
        "rowId": 52,
        "sortName": "Fishing Contest",
        "displayName": "Fishing Contest",
        "type": "QUEST",
        "members": true,
        "difficulty": "NOVICE",
        "length": "VERY_SHORT",
        "releaseYear": 2002,
        "startPosition": {
          "x": 2876,
          "y": 3483,
          "plane": 0
        },
        "rewardPoints": 1,
        "progressionStatus": [],
        "completionStatus": 5,
        "skillRequirements": [
          {
            "skill": "FISHING",
            "requirement": 10
          }
        ],
        "skillRecommendations": [],
        "questRequirements": [],
        "questPointRequirement": 0,
        "combatLevelRequirement": 0,
        "combatLevelRecommended": 0
      }
    }
  ],
  "questPointRequirement": 0,
  "combatLevelRequirement": 0,
  "combatLevelRecommended": 65
}