{
  "varpID": -1,
  "varbitID": 13841,
  "id": 169,
  "rowId": 168,
  "sortName": "Beneath Cursed Sands",
  "displayName": "Beneath Cursed Sands",
  "type": "QUEST",
  "members": true,
  "difficulty": "MASTER",
  "length": "MEDIUM",
  "releaseYear": 2022,
  "startPosition": {
    "x": 3310,
    "y": 2780,
    "plane": 0
  },
  "rewardPoints": 2,
  "progressionStatus": [],
  "completionStatus": 108,
  "skillRequirements": [
    {
      "skill": "AGILITY",
      "requirement": 62
    },
    {
      "skill": "FIREMAKING",
      "requirement": 55
    },
    {
      "skill": "CRAFTING",
      "requirement": 55
    }
  ],
  "skillRecommendations": [],
  "questRequirements": [
    {
      "quest": {
        "id": 124,
        "rowId": 16,
        "sortName": "Contact!",
        "displayName": "Contact!",
        "type": "QUEST",
        "members": true,
        "difficulty": "EXPERIENCED",
        "length": "SHORT",
        "releaseYear": 2007,
        "startPosition": {
          "x": 3281,
          "y": 2771,
          "plane": 0
        },
        "rewardPoints": 1,
        "progressionStatus": [],
        "completionStatus": 130,
        "skillRequirements": [
          {
            "skill": "AGILITY",
            "requirement": 50
          },
          {
            "skill": "THIEVING",
            "requirement": 50
          }
        ],
        "skillRecommendations": [],
        "questRequirements": [
          {
            "quest": {
              "id": 80,
              "rowId": 75,
              "sortName": "Icthlarin's Little Helper",
              "displayName": "Icthlarin's Little Helper",
              "type": "QUEST",
              "members": true,
              "difficulty": "INTERMEDIATE",
              "length": "MEDIUM",
              "releaseYear": 2005,
              "startPosition": {
                "x": 3316,
                "y": 2849,
                "plane": 0
              },
              "rewardPoints": 2,
              "progressionStatus": [],
              "completionStatus": 26,
              "skillRequirements": [
                {
                  "skill": "AGILITY",
                  "requirement": 40
                }
              ],
              "skillRecommendations": [],
              "questRequirements": [
                {
                  "quest": {
                    "id": 50,
                    "rowId": 60,
                    "sortName": "Gertrude's Cat",
                    "displayName": "Gertrude's Cat",
                    "type": "QUEST",
                    "members": true,
                    "difficulty": "NOVICE",
                    "length": "VERY_SHORT",
                    "releaseYear": 2003,
                    "startPosition": {
                      "x": 3150,
                      "y": 3410,
                      "plane": 0
                    },
                    "rewardPoints": 1,
                    "progressionStatus": [],
                    "completionStatus": 6,
                    "skillRequirements": [],
                    "skillRecommendations": [],
                    "questRequirements": [],
                    "questPointRequirement": 0,
                    "combatLevelRequirement": 0,
                    "combatLevelRecommended": 0
                  }
                }
              ],
              "questPointRequirement": 0,
              "combatLevelRequirement": 0,
              "combatLevelRecommended": 50
            }
          },
          {
            "quest": {
              "id": 10,
              "rowId": 112,
              "sortName": "Prince Ali Rescue",
              "displayName": "Prince Ali Rescue",
              "type": "QUEST",
              "members": false,
              "difficulty": "NOVICE",
              "length": "SHORT",
              "releaseYear": 2001,
              "startPosition": {
                "x": 3301,
                "y": 3164,
                "plane": 0
              },
              "rewardPoints": 3,
              "progressionStatus": [],
              "completionStatus": 110,
              "skillRequirements": [],
              "skillRecommendations": [],
              "questRequirements": [],
              "questPointRequirement": 0,
              "combatLevelRequirement": 0,
              "combatLevelRecommended": 10
            }
          }
        ],
        "questPointRequirement": 0,
        "combatLevelRequirement": 0,
        "combatLevelRecommended": 70
      }
    }
  ],
  "questPointRequirement": 0,
  "combatLevelRequirement": 0,
  "combatLevelRecommended": 85
}