{
  "varpID": -1,
  "varbitID": 1896,
  "id": 175,
  "rowId": 2311,
  "sortName": "Recipe for Disaster Lumbridge Guide",
  "displayName": "Recipe for Disaster - Lumbridge Guide",
  "type": "QUEST",
  "members": true,
  "difficulty": "SPECIAL",
  "length": "SHORT",
  "releaseYear": 2006,
  "startPosition": {
    "x": 3207,
    "y": 3214,
    "plane": 0
  },
  "rewardPoints": 1,
  "progressionStatus": [],
  "completionStatus": 5,
  "skillRequirements": [
    {
      "skill": "COOKING",
      "requirement": 40
    }
  ],
  "skillRecommendations": [],
  "questRequirements": [
    {
      "quest": {
        "id": 171,
        "rowId": 2307,
        "sortName": "Recipe for Disaster Another Cook's Quest",
        "displayName": "Recipe for Disaster - Another Cook's Quest",
        "type": "QUEST",
        "members": true,
        "difficulty": "SPECIAL",
        "length": "SHORT",
        "releaseYear": 2006,
        "startPosition": {
          "x": 3207,
          "y": 3214,
          "plane": 0
        },
        "rewardPoints": 1,
        "progressionStatus": [],
        "completionStatus": 2,
        "skillRequirements": [
          {
            "skill": "COOKING",
            "requirement": 10
          }
        ],
        "skillRecommendations": [],
        "questRequirements": [
          {
            "quest": {
              "id": 1,
              "rowId": 17,
              "sortName": "Cook's Assistant",
              "displayName": "Cook's Assistant",
              "type": "QUEST",
              "members": false,
              "difficulty": "NOVICE",
              "length": "VERY_SHORT",
              "releaseYear": 2001,
              "startPosition": {
                "x": 3207,
                "y": 3214,
                "plane": 0
              },
              "rewardPoints": 1,
              "progressionStatus": [],
              "completionStatus": 2,
              "skillRequirements": [],
              "skillRecommendations": [],
              "questRequirements": [],
              "questPointRequirement": 0,
              "combatLevelRequirement": 0,
              "combatLevelRecommended": 0
            }
          }
        ],
        "questPointRequirement": 0,
        "combatLevelRequirement": 0,
        "combatLevelRecommended": 0
      }
    },
    {
      "quest": {
        "id": 54,
        "rowId": 8,
        "sortName": "Big Chompy Bird Hunting",
        "displayName": "Big Chompy Bird Hunting",
        "type": "QUEST",
        "members": true,
        "difficulty": "INTERMEDIATE",
        "length": "SHORT",
        "releaseYear": 2004,
        "startPosition": {
          "x": 2629,
          "y": 2980,
          "plane": 0
        },
        "rewardPoints": 2,
        "progressionStatus": [],
        "completionStatus": 65,
        "skillRequirements": [
          {
            "skill": "RANGED",
            "requirement": 30
          },
          {
            "skill": "COOKING",
            "requirement": 30
          },
          {
            "skill": "FLETCHING",
            "requirement": 5
          }
        ],
        "skillRecommendations": [],
        "questRequirements": [],
        "questPointRequirement": 0,
        "combatLevelRequirement": 0,
        "combatLevelRecommended": 25
      }
    },
    {
      "quest": {
        "id": 57,
        "rowId": 103,
        "sortName": "Nature Spirit",
        "displayName": "Nature Spirit",
        "type": "QUEST",
        "members": true,
        "difficulty": "INTERMEDIATE",
        "length": "SHORT",
        "releaseYear": 2004,
        "startPosition": {
          "x": 3439,
          "y": 9896,
          "plane": 0
        },
        "rewardPoints": 2,
        "progressionStatus": [],
        "completionStatus": 110,
        "skillRequirements": [],
        "skillRecommendations": [],
        "questRequirements": [
          {
            "quest": {
              "id": 56,
              "rowId": 111,
              "sortName": "Priest in Peril",
              "displayName": "Priest in Peril",
              "type": "QUEST",
              "members": true,
              "difficulty": "NOVICE",
              "length": "SHORT",
              "releaseYear": 2004,
              "startPosition": {
                "x": 3221,
                "y": 3473,
                "plane": 0
              },
              "rewardPoints": 1,
              "progressionStatus": [],
              "completionStatus": 60,
              "skillRequirements": [],
              "skillRecommendations": [],
              "questRequirements": [],
              "questPointRequirement": 0,
              "combatLevelRequirement": 0,
              "combatLevelRecommended": 15
            }
          },
          {
            "quest": {
              "id": 3,
              "rowId": 120,
              "sortName": "Restless Ghost, The",
              "displayName": "The Restless Ghost",
              "type": "QUEST",
              "members": false,
              "difficulty": "NOVICE",
              "length": "SHORT",
              "releaseYear": 2001,
              "startPosition": {
                "x": 3243,
                "y": 3210,
                "plane": 0
              },
              "rewardPoints": 1,
              "progressionStatus": [],
              "completionStatus": 5,
              "skillRequirements": [],
              "skillRecommendations": [],
              "questRequirements": [],
              "questPointRequirement": 0,
              "combatLevelRequirement": 0,
              "combatLevelRecommended": 10
            }
          }
        ],
        "questPointRequirement": 0,
        "combatLevelRequirement": 0,
        "combatLevelRecommended": 20
      }
    },
    {
      "quest": {
        "id": 39,
        "rowId": 9,
        "sortName": "Biohazard",
        "displayName": "Biohazard",
        "type": "QUEST",
        "members": true,
        "difficulty": "NOVICE",
        "length": "SHORT",
        "releaseYear": 2002,
        "startPosition": {
          "x": 2591,
          "y": 3336,
          "plane": 0
        },
        "rewardPoints": 3,
        "progressionStatus": [],
        "completionStatus": 16,
        "skillRequirements": [],
        "skillRecommendations": [],
        "questRequirements": [
          {
            "quest": {
              "id": 36,
              "rowId": 109,
              "sortName": "Plague City",
              "displayName": "Plague City",
              "type": "QUEST",
              "members": true,
              "difficulty": "NOVICE",
              "length": "VERY_SHORT",
              "releaseYear": 2002,
              "startPosition": {
                "x": 2568,
                "y": 3334,
                "plane": 0
              },
              "rewardPoints": 1,
              "progressionStatus": [],
              "completionStatus": 29,
              "skillRequirements": [],
              "skillRecommendations": [],
              "questRequirements": [],
              "questPointRequirement": 0,
              "combatLevelRequirement": 0,
              "combatLevelRecommended": 0
            }
          }
        ],
        "questPointRequirement": 0,
        "combatLevelRequirement": 0,
        "combatLevelRecommended": 10
      }
    },
    {
      "quest": {
        "id": 2,
        "rowId": 25,
        "sortName": "Demon Slayer",
        "displayName": "Demon Slayer",
        "type": "QUEST",
        "members": false,
        "difficulty": "NOVICE",
        "length": "SHORT",
        "releaseYear": 2001,
        "startPosition": {
          "x": 3204,
          "y": 3424,
          "plane": 0
        },
        "rewardPoints": 3,
        "progressionStatus": [],
        "completionStatus": 3,
        "skillRequirements": [],
        "skillRecommendations": [],
        "questRequirements": [],
        "questPointRequirement": 0,
        "combatLevelRequirement": 0,
        "combatLevelRecommended": 15
      }
    },
    {
      "quest": {
        "id": 20,
        "rowId": 160,
        "sortName": "Witch's House",
        "displayName": "Witch's House",
        "type": "QUEST",
        "members": true,
        "difficulty": "INTERMEDIATE",
        "length": "VERY_SHORT",
        "releaseYear": 2002,
        "startPosition": {
          "x": 2927,
          "y": 3456,
          "plane": 0
        },
        "rewardPoints": 4,
        "progressionStatus": [],
        "completionStatus": 7,
        "skillRequirements": [],
        "skillRecommendations": [],
        "questRequirements": [],
        "questPointRequirement": 0,
        "combatLevelRequirement": 0,
        "combatLevelRecommended": 35
      }
    },
    {
      "quest": {
        "id": 48,
        "rowId": 101,
        "sortName": "Murder Mystery",
        "displayName": "Murder Mystery",
        "type": "QUEST",
        "members": true,
        "difficulty": "NOVICE",
        "length": "SHORT",
        "releaseYear": 2003,
        "startPosition": {
          "x": 2741,
          "y": 3561,
          "plane": 0
        },
        "rewardPoints": 3,
        "progressionStatus": [],
        "completionStatus": 2,
        "skillRequirements": [],
        "skillRecommendations": [],
        "questRequirements": [],
        "questPointRequirement": 0,
        "combatLevelRequirement": 0,
        "combatLevelRecommended": 0
      }
    }
  ],
  "questPointRequirement": 0,
  "combatLevelRequirement": 0,
  "combatLevelRecommended": 0
}