{
  "varpID": 165,
  "varbitID": -1,
  "id": 36,
  "rowId": 109,
  "sortName": "Plague City",
  "displayName": "Plague City",
  "type": "QUEST",
  "members": true,
  "difficulty": "NOVICE",
  "length": "VERY_SHORT",
  "releaseYear": 2002,
  "startPosition": {
    "x": 2568,
    "y": 3334,
    "plane": 0
  },
  "rewardPoints": 1,
  "progressionStatus": [],
  "completionStatus": 29,
  "skillRequirements": [],
  "skillRecommendations": [],
  "questRequirements": [],
  "questPointRequirement": 0,
  "combatLevelRequirement": 0,
  "combatLevelRecommended": 0
}