{
  "varpID": 150,
  "varbitID": -1,
  "id": 41,
  "rowId": 66,
  "sortName": "Grand Tree, The",
  "displayName": "The Grand Tree",
  "type": "QUEST",
  "members": true,
  "difficulty": "INTERMEDIATE",
  "length": "MEDIUM",
  "releaseYear": 2002,
  "startPosition": {
    "x": 2465,
    "y": 3495,
    "plane": 0
  },
  "rewardPoints": 5,
  "progressionStatus": [],
  "completionStatus": 160,
  "skillRequirements": [
    {
      "skill": "AGILITY",
      "requirement": 25
    }
  ],
  "skillRecommendations": [],
  "questRequirements": [],
  "questPointRequirement": 0,
  "combatLevelRequirement": 0,
  "combatLevelRecommended": 50
}