{
  "varpID": 116,
  "varbitID": -1,
  "id": 42,
  "rowId": 133,
  "sortName": "Shilo Village",
  "displayName": "Shilo Village",
  "type": "QUEST",
  "members": true,
  "difficulty": "INTERMEDIATE",
  "length": "MEDIUM",
  "releaseYear": 2003,
  "startPosition": {
    "x": 2884,
    "y": 2951,
    "plane": 0
  },
  "rewardPoints": 2,
  "progressionStatus": [],
  "completionStatus": 15,
  "skillRequirements": [
    {
      "skill": "AGILITY",
      "requirement": 32
    },
    {
      "skill": "CRAFTING",
      "requirement": 20
    }
  ],
  "skillRecommendations": [],
  "questRequirements": [
    {
      "quest": {
        "id": 40,
        "rowId": 80,
        "sortName": "Jungle Potion",
        "displayName": "Jungle Potion",
        "type": "QUEST",
        "members": true,
        "difficulty": "NOVICE",
        "length": "SHORT",
        "releaseYear": 2002,
        "startPosition": {
          "x": 2808,
          "y": 3086,
          "plane": 0
        },
        "rewardPoints": 1,
        "progressionStatus": [],
        "completionStatus": 12,
        "skillRequirements": [],
        "skillRecommendations": [],
        "questRequirements": [
          {
            "quest": {
              "id": 18,
              "rowId": 34,
              "sortName": "Druidic Ritual",
              "displayName": "Druidic Ritual",
              "type": "QUEST",
              "members": true,
              "difficulty": "NOVICE",
              "length": "VERY_SHORT",
              "releaseYear": 2002,
              "startPosition": {
                "x": 2917,
                "y": 3484,
                "plane": 0
              },
              "rewardPoints": 4,
              "progressionStatus": [],
              "completionStatus": 4,
              "skillRequirements": [],
              "skillRecommendations": [],
              "questRequirements": [],
              "questPointRequirement": 0,
              "combatLevelRequirement": 0,
              "combatLevelRecommended": 10
            }
          }
        ],
        "questPointRequirement": 0,
        "combatLevelRequirement": 0,
        "combatLevelRecommended": 20
      }
    }
  ],
  "questPointRequirement": 0,
  "combatLevelRequirement": 0,
  "combatLevelRecommended": 45
}