{
  "varpID": 307,
  "varbitID": -1,
  "id": 57,
  "rowId": 103,
  "sortName": "Nature Spirit",
  "displayName": "Nature Spirit",
  "type": "QUEST",
  "members": true,
  "difficulty": "INTERMEDIATE",
  "length": "SHORT",
  "releaseYear": 2004,
  "startPosition": {
    "x": 3439,
    "y": 9896,
    "plane": 0
  },
  "rewardPoints": 2,
  "progressionStatus": [],
  "completionStatus": 110,
  "skillRequirements": [],
  "skillRecommendations": [],
  "questRequirements": [
    {
      "quest": {
        "id": 56,
        "rowId": 111,
        "sortName": "Priest in Peril",
        "displayName": "Priest in Peril",
        "type": "QUEST",
        "members": true,
        "difficulty": "NOVICE",
        "length": "SHORT",
        "releaseYear": 2004,
        "startPosition": {
          "x": 3221,
          "y": 3473,
          "plane": 0
        },
        "rewardPoints": 1,
        "progressionStatus": [],
        "completionStatus": 60,
        "skillRequirements": [],
        "skillRecommendations": [],
        "questRequirements": [],
        "questPointRequirement": 0,
        "combatLevelRequirement": 0,
        "combatLevelRecommended": 15
      }
    },
    {
      "quest": {
        "id": 3,
        "rowId": 120,
        "sortName": "Restless Ghost, The",
        "displayName": "The Restless Ghost",
        "type": "QUEST",
        "members": false,
        "difficulty": "NOVICE",
        "length": "SHORT",
        "releaseYear": 2001,
        "startPosition": {
          "x": 3243,
          "y": 3210,
          "plane": 0
        },
        "rewardPoints": 1,
        "progressionStatus": [],
        "completionStatus": 5,
        "skillRequirements": [],
        "skillRecommendations": [],
        "questRequirements": [],
        "questPointRequirement": 0,
        "combatLevelRequirement": 0,
        "combatLevelRecommended": 10
      }
    }
  ],
  "questPointRequirement": 0,
  "combatLevelRequirement": 0,
  "combatLevelRecommended": 20
}