{
  "varpID": 416,
  "varbitID": -1,
  "id": 74,
  "rowId": 107,
  "sortName": "One Small Favour",
  "displayName": "One Small Favour",
  "type": "QUEST",
  "members": true,
  "difficulty": "EXPERIENCED",
  "length": "LONG",
  "releaseYear": 2005,
  "startPosition": {
    "x": 2835,
    "y": 2986,
    "plane": 0
  },
  "rewardPoints": 2,
  "progressionStatus": [],
  "completionStatus": 285,
  "skillRequirements": [
    {
      "skill": "AGILITY",
      "requirement": 36
    },
    {
      "skill": "SMITHING",
      "requirement": 30
    },
    {
      "skill": "CRAFTING",
      "requirement": 25
    },
    {
      "skill": "HERBLORE",
      "requirement": 18
    }
  ],
  "skillRecommendations": [],
  "questRequirements": [
    {
      "quest": {
        "id": 42,
        "rowId": 133,
        "sortName": "Shilo Village",
        "displayName": "Shilo Village",
        "type": "QUEST",
        "members": true,
        "difficulty": "INTERMEDIATE",
        "length": "MEDIUM",
        "releaseYear": 2003,
        "startPosition": {
          "x": 2884,
          "y": 2951,
          "plane": 0
        },
        "rewardPoints": 2,
        "progressionStatus": [],
        "completionStatus": 15,
        "skillRequirements": [
          {
            "skill": "AGILITY",
            "requirement": 32
          },
          {
            "skill": "CRAFTING",
            "requirement": 20
          }
        ],
        "skillRecommendations": [],
        "questRequirements": [
          {
            "quest": {
              "id": 40,
              "rowId": 80,
              "sortName": "Jungle Potion",
              "displayName": "Jungle Potion",
              "type": "QUEST",
              "members": true,
              "difficulty": "NOVICE",
              "length": "SHORT",
              "releaseYear": 2002,
              "startPosition": {
                "x": 2808,
                "y": 3086,
                "plane": 0
              },
              "rewardPoints": 1,
              "progressionStatus": [],
              "completionStatus": 12,
              "skillRequirements": [],
              "skillRecommendations": [],
              "questRequirements": [
                {
                  "quest": {
                    "id": 18,
                    "rowId": 34,
                    "sortName": "Druidic Ritual",
                    "displayName": "Druidic Ritual",
                    "type": "QUEST",
                    "members": true,
                    "difficulty": "NOVICE",
                    "length": "VERY_SHORT",
                    "releaseYear": 2002,
                    "startPosition": {
                      "x": 2917,
                      "y": 3484,
                      "plane": 0
                    },
                    "rewardPoints": 4,
                    "progressionStatus": [],
                    "completionStatus": 4,
                    "skillRequirements": [],
                    "skillRecommendations": [],
                    "questRequirements": [],
                    "questPointRequirement": 0,
                    "combatLevelRequirement": 0,
                    "combatLevelRecommended": 10
                  }
                }
              ],
              "questPointRequirement": 0,
              "combatLevelRequirement": 0,
              "combatLevelRecommended": 20
            }
          }
        ],
        "questPointRequirement": 0,
        "combatLevelRequirement": 0,
        "combatLevelRecommended": 45
      }
    },
    {
      "quest": {
        "id": 53,
        "rowId": 125,
        "sortName": "Rune Mysteries",
        "displayName": "Rune Mysteries",
        "type": "QUEST",
        "members": false,
        "difficulty": "NOVICE",
        "length": "SHORT",
        "releaseYear": 2003,
        "startPosition": {
          "x": 3209,
          "y": 3221,
          "plane": 0
        },
        "rewardPoints": 1,
        "progressionStatus": [],
        "completionStatus": 6,
        "skillRequirements": [],
        "skillRecommendations": [],
        "questRequirements": [],
        "questPointRequirement": 0,
        "combatLevelRequirement": 0,
        "combatLevelRecommended": 0
      }
    }
  ],
  "questPointRequirement": 0,
  "combatLevelRequirement": 0,
  "combatLevelRecommended": 45
}