{
  "varpID": -1,
  "varbitID": 299,
  "id": 76,
  "rowId": 7,
  "sortName": "Between a Rock...",
  "displayName": "Between a Rock...",
  "type": "QUEST",
  "members": true,
  "difficulty": "EXPERIENCED",
  "length": "MEDIUM",
  "releaseYear": 2005,
  "startPosition": {
    "x": 2825,
    "y": 10168,
    "plane": 0
  },
  "rewardPoints": 2,
  "progressionStatus": [],
  "completionStatus": 110,
  "skillRequirements": [
    {
      "skill": "SMITHING",
      "requirement": 50
    },
    {
      "skill": "MINING",
      "requirement": 40
    },
    {
      "skill": "DEFENCE",
      "requirement": 30
    }
  ],
  "skillRecommendations": [],
  "questRequirements": [
    {
      "quest": {
        "id": 47,
        "rowId": 35,
        "sortName": "Dwarf Cannon",
        "displayName": "Dwarf Cannon",
        "type": "QUEST",
        "members": true,
        "difficulty": "NOVICE",
        "length": "SHORT",
        "releaseYear": 2003,
        "startPosition": {
          "x": 2568,
          "y": 3460,
          "plane": 0
        },
        "rewardPoints": 1,
        "progressionStatus": [],
        "completionStatus": 11,
        "skillRequirements": [],
        "skillRecommendations": [],
        "questRequirements": [],
        "questPointRequirement": 0,
        "combatLevelRequirement": 0,
        "combatLevelRecommended": 0
      }
    },
    {
      "quest": {
        "id": 27,
        "rowId": 52,
        "sortName": "Fishing Contest",
        "displayName": "Fishing Contest",
        "type": "QUEST",
        "members": true,
        "difficulty": "NOVICE",
        "length": "VERY_SHORT",
        "releaseYear": 2002,
        "startPosition": {
          "x": 2876,
          "y": 3483,
          "plane": 0
        },
        "rewardPoints": 1,
        "progressionStatus": [],
        "completionStatus": 5,
        "skillRequirements": [
          {
            "skill": "FISHING",
            "requirement": 10
          }
        ],
        "skillRecommendations": [],
        "questRequirements": [],
        "questPointRequirement": 0,
        "combatLevelRequirement": 0,
        "combatLevelRecommended": 0
      }
    }
  ],
  "questPointRequirement": 0,
  "combatLevelRequirement": 0,
  "combatLevelRecommended": 50
}