{
  "varpID": -1,
  "varbitID": 532,
  "id": 83,
  "rowId": 87,
  "sortName": "Lost Tribe, The",
  "displayName": "The Lost Tribe",
  "type": "QUEST",
  "members": true,
  "difficulty": "INTERMEDIATE",
  "length": "SHORT",
  "releaseYear": 2005,
  "startPosition": {
    "x": 3209,
    "y": 3221,
    "plane": 1
  },
  "rewardPoints": 1,
  "progressionStatus": [],
  "completionStatus": 11,
  "skillRequirements": [
    {
      "skill": "MINING",
      "requirement": 17
    },
    {
      "skill": "THIEVING",
      "requirement": 13
    },
    {
      "skill": "AGILITY",
      "requirement": 13
    }
  ],
  "skillRecommendations": [],
  "questRequirements": [
    {
      "quest": {
        "id": 15,
        "rowId": 64,
        "sortName": "Goblin Diplomacy",
        "displayName": "Goblin Diplomacy",
        "type": "QUEST",
        "members": false,
        "difficulty": "NOVICE",
        "length": "VERY_SHORT",
        "releaseYear": 2001,
        "startPosition": {
          "x": 2958,
          "y": 3511,
          "plane": 0
        },
        "rewardPoints": 5,
        "progressionStatus": [],
        "completionStatus": 6,
        "skillRequirements": [],
        "skillRecommendations": [],
        "questRequirements": [],
        "questPointRequirement": 0,
        "combatLevelRequirement": 0,
        "combatLevelRecommended": 0
      }
    },
    {
      "quest": {
        "id": 53,
        "rowId": 125,
        "sortName": "Rune Mysteries",
        "displayName": "Rune Mysteries",
        "type": "QUEST",
        "members": false,
        "difficulty": "NOVICE",
        "length": "SHORT",
        "releaseYear": 2003,
        "startPosition": {
          "x": 3209,
          "y": 3221,
          "plane": 0
        },
        "rewardPoints": 1,
        "progressionStatus": [],
        "completionStatus": 6,
        "skillRequirements": [],
        "skillRecommendations": [],
        "questRequirements": [],
        "questPointRequirement": 0,
        "combatLevelRequirement": 0,
        "combatLevelRecommended": 0
      }
    }
  ],
  "questPointRequirement": 0,
  "combatLevelRequirement": 0,
  "combatLevelRecommended": 0
}